{
  "type": "jupyter",
  "params": {
    "notebookSmartName": "admin\u0027s Python notebook_1",
    "exportTimestamp": 0,
    "loadLast": true
  },
  "owner": "admin",
  "listed": false,
  "name": "admin\u0027s Python notebook_1",
  "dashboardCreationId": "4MhyoGr",
  "versionTag": {
    "versionNumber": 0,
    "lastModifiedBy": {
      "login": "admin"
    },
    "lastModifiedOn": 1597423856769
  },
  "creationTag": {
    "versionNumber": 0,
    "lastModifiedBy": {
      "login": "admin"
    },
    "lastModifiedOn": 1597423856769
  },
  "tags": [],
  "customFields": {},
  "checklists": {
    "checklists": []
  }
}