{
  "pages": [
    {
      "id": "pnXAeR9",
      "grid": {
        "tiles": []
      },
      "showTitle": false
    }
  ],
  "owner": "admin",
  "listed": false,
  "name": "Demo",
  "showGrid": true,
  "versionTag": {
    "versionNumber": 4,
    "lastModifiedBy": {
      "login": "admin"
    },
    "lastModifiedOn": 1601502284373
  },
  "creationTag": {
    "versionNumber": 0,
    "lastModifiedBy": {
      "login": "admin"
    },
    "lastModifiedOn": 1601501727551
  },
  "tags": [],
  "customFields": {},
  "checklists": {
    "checklists": []
  }
}